Artificial Intelligence untuk Nowcasting
…
Struktur Data MIMO

prepare_mimo_data(data = na.omit(df),
                  date_col = date,
                  input_vars = c("ADHK"),
                  output_vars = c("ADHK"),
                  lags = 0:2,
                  remove_na = FALSE,
                  horizon = 1:4)

# A tibble: 35 × 8
   date_lg0   ADHK_lag2 ADHK_lag1 ADHK_lag0 ADHK_lead1 ADHK_lead2 ADHK_lead3
   <date>         <dbl>     <dbl>     <dbl>      <dbl>      <dbl>      <dbl>
 1 2015-03-01       NA        NA     20908.     21772.     24374.     22283.
 2 2015-06-01       NA     20908.    21772.     24374.     22283.     22643.
 3 2015-09-01    20908.    21772.    24374.     22283.     22643.     23601.
 4 2015-12-01    21772.    24374.    22283.     22643.     23601.     23122.
 5 2016-03-01    24374.    22283.    22643.     23601.     23122.     21901.
 6 2016-06-01    22283.    22643.    23601.     23122.     21901.     23228.
 7 2016-12-01    22643.    23601.    23122.     21901.     23228.     26217.
 8 2017-03-01    23601.    23122.    21901.     23228.     26217.     23263.
 9 2017-06-01    23122.    21901.    23228.     26217.     23263.     21902.
10 2017-09-01    21901.    23228.    26217.     23263.     21902.     22931.
# ℹ 25 more rows
# ℹ 1 more variable: ADHK_lead4 <dbl>
…
return(result)
}

Satu Variabel

mimo_df1 <- prepare_mimo_data(data = na.omit(df),
                  date_col = date,
                  input_vars = c("ADHK"),
                  output_vars = c("ADHK"),
                  lags = 0:2,
                  remove_na = TRUE,
                  horizon = 1:4)
mimo_df1

# A tibble: 29 × 8
   date_lg0   ADHK_lag2 ADHK_lag1 ADHK_lag0 ADHK_lead1 ADHK_lead2 ADHK_lead3
   <date>         <dbl>     <dbl>     <dbl>      <dbl>      <dbl>      <dbl>
 1 2015-09-01    20908.    21772.    24374.     22283.     22643.     23601.
 2 2015-12-01    21772.    24374.    22283.     22643.     23601.     23122.
 3 2016-03-01    24374.    22283.    22643.     23601.     23122.     21901.
 4 2016-06-01    22283.    22643.    23601.     23122.     21901.     23228.
 5 2016-12-01    22643.    23601.    23122.     21901.     23228.     26217.
 6 2017-03-01    23601.    23122.    21901.     23228.     26217.     23263.
 7 2017-06-01    23122.    21901.    23228.     26217.     23263.     21902.
 8 2017-09-01    21901.    23228.    26217.     23263.     21902.     22931.
 9 2017-12-01    23228.    26217.    23263.     21902.     22931.     22560.
10 2018-03-01    26217.    23263.    21902.     22931.     22560.     22955.
# ℹ 19 more rows
# ℹ 1 more variable: ADHK_lead4 <dbl>

train_df <- mimo_df1 %>% 
            filter(date_lg0<"2022-01-01")
train_df

# A tibble: 25 × 8
   date_lg0   ADHK_lag2 ADHK_lag1 ADHK_lag0 ADHK_lead1 ADHK_lead2 ADHK_lead3
   <date>         <dbl>     <dbl>     <dbl>      <dbl>      <dbl>      <dbl>
 1 2015-09-01    20908.    21772.    24374.     22283.     22643.     23601.
 2 2015-12-01    21772.    24374.    22283.     22643.     23601.     23122.
 3 2016-03-01    24374.    22283.    22643.     23601.     23122.     21901.
 4 2016-06-01    22283.    22643.    23601.     23122.     21901.     23228.
 5 2016-12-01    22643.    23601.    23122.     21901.     23228.     26217.
 6 2017-03-01    23601.    23122.    21901.     23228.     26217.     23263.
 7 2017-06-01    23122.    21901.    23228.     26217.     23263.     21902.
 8 2017-09-01    21901.    23228.    26217.     23263.     21902.     22931.
 9 2017-12-01    23228.    26217.    23263.     21902.     22931.     22560.
10 2018-03-01    26217.    23263.    21902.     22931.     22560.     22955.
# ℹ 15 more rows
# ℹ 1 more variable: ADHK_lead4 <dbl>
…
[1] "ekspor" "ihk"   

mimo_df2 <- prepare_mimo_data(data = na.omit(df),
                  date_col = date,
                  input_vars = c("ADHK",input_vars),
                  output_vars = c("ADHK"),
                  lags = 0:2,
                  remove_na = TRUE,
                  horizon = 1:4)
mimo_df2

# A tibble: 29 × 14
   date_lg0   ihk_lag2 ihk_lag1 ihk_lag0 ekspor_lag2 ekspor_lag1 ekspor_lag0
   <date>        <dbl>    <dbl>    <dbl>       <dbl>       <dbl>       <dbl>
 1 2015-09-01     98.9     98.9     98.8    95186751    85868149   146184552
 2 2015-12-01     98.9     98.8     98.8    85868149   146184552   277363045
 3 2016-03-01     98.8     98.8     98.8   146184552   277363045    80837466
 4 2016-06-01     98.8     98.8     98.8   277363045    80837466   256450298
 5 2016-12-01     98.8     98.8     98.8    80837466   256450298   195677273
 6 2017-03-01     98.8     98.8     98.8   256450298   195677273   135640406
 7 2017-06-01     98.8     98.8     98.8   195677273   135640406    59935547
 8 2017-09-01     98.8     98.8     98.8   135640406    59935547    75541458
 9 2017-12-01     98.8     98.8     98.8    59935547    75541458   158378320
10 2018-03-01     98.8     98.8     98.9    75541458   158378320    43910678
# ℹ 19 more rows
# ℹ 7 more variables: ADHK_lag2 <dbl>, ADHK_lag1 <dbl>, ADHK_lag0 <dbl>,
#   ADHK_lead1 <dbl>, ADHK_lead2 <dbl>, ADHK_lead3 <dbl>, ADHK_lead4 <dbl>

train_df <- mimo_df2 %>% 
            filter(date_lg0<"2022-01-01")
train_df

# A tibble: 25 × 14
   date_lg0   ihk_lag2 ihk_lag1 ihk_lag0 ekspor_lag2 ekspor_lag1 ekspor_lag0
   <date>        <dbl>    <dbl>    <dbl>       <dbl>       <dbl>       <dbl>
 1 2015-09-01     98.9     98.9     98.8    95186751    85868149   146184552
 2 2015-12-01     98.9     98.8     98.8    85868149   146184552   277363045
 3 2016-03-01     98.8     98.8     98.8   146184552   277363045    80837466
 4 2016-06-01     98.8     98.8     98.8   277363045    80837466   256450298
 5 2016-12-01     98.8     98.8     98.8    80837466   256450298   195677273
 6 2017-03-01     98.8     98.8     98.8   256450298   195677273   135640406
 7 2017-06-01     98.8     98.8     98.8   195677273   135640406    59935547
 8 2017-09-01     98.8     98.8     98.8   135640406    59935547    75541458
 9 2017-12-01     98.8     98.8     98.8    59935547    75541458   158378320
10 2018-03-01     98.8     98.8     98.9    75541458   158378320    43910678
# ℹ 15 more rows
# ℹ 7 more variables: ADHK_lag2 <dbl>, ADHK_lag1 <dbl>, ADHK_lag0 <dbl>,
#   ADHK_lead1 <dbl>, ADHK_lead2 <dbl>, ADHK_lead3 <dbl>, ADHK_lead4 <dbl>
…
return(result)
}

Satu Variabel

mimo_df1 <- prepare_mimo_data(data = na.omit(df),
                  date_col = date,
                  input_vars = c("ADHK"),
                  output_vars = c("ADHK"),
                  lags = 0:2,
                  remove_na = TRUE,
                  horizon = 1:4)
mimo_df1

# A tibble: 29 × 8
   date_lg0   ADHK_lag2 ADHK_lag1 ADHK_lag0 ADHK_lead1 ADHK_lead2 ADHK_lead3
   <date>         <dbl>     <dbl>     <dbl>      <dbl>      <dbl>      <dbl>
 1 2015-09-01    20908.    21772.    24374.     22283.     22643.     23601.
 2 2015-12-01    21772.    24374.    22283.     22643.     23601.     23122.
 3 2016-03-01    24374.    22283.    22643.     23601.     23122.     21901.
 4 2016-06-01    22283.    22643.    23601.     23122.     21901.     23228.
 5 2016-12-01    22643.    23601.    23122.     21901.     23228.     26217.
 6 2017-03-01    23601.    23122.    21901.     23228.     26217.     23263.
 7 2017-06-01    23122.    21901.    23228.     26217.     23263.     21902.
 8 2017-09-01    21901.    23228.    26217.     23263.     21902.     22931.
 9 2017-12-01    23228.    26217.    23263.     21902.     22931.     22560.
10 2018-03-01    26217.    23263.    21902.     22931.     22560.     22955.
# ℹ 19 more rows
# ℹ 1 more variable: ADHK_lead4 <dbl>

train_df <- mimo_df1 %>% 
            filter(date_lg0<"2022-01-01")
train_df

# A tibble: 25 × 8
   date_lg0   ADHK_lag2 ADHK_lag1 ADHK_lag0 ADHK_lead1 ADHK_lead2 ADHK_lead3
   <date>         <dbl>     <dbl>     <dbl>      <dbl>      <dbl>      <dbl>
 1 2015-09-01    20908.    21772.    24374.     22283.     22643.     23601.
 2 2015-12-01    21772.    24374.    22283.     22643.     23601.     23122.
 3 2016-03-01    24374.    22283.    22643.     23601.     23122.     21901.
 4 2016-06-01    22283.    22643.    23601.     23122.     21901.     23228.
 5 2016-12-01    22643.    23601.    23122.     21901.     23228.     26217.
 6 2017-03-01    23601.    23122.    21901.     23228.     26217.     23263.
 7 2017-06-01    23122.    21901.    23228.     26217.     23263.     21902.
 8 2017-09-01    21901.    23228.    26217.     23263.     21902.     22931.
 9 2017-12-01    23228.    26217.    23263.     21902.     22931.     22560.
10 2018-03-01    26217.    23263.    21902.     22931.     22560.     22955.
# ℹ 15 more rows
# ℹ 1 more variable: ADHK_lead4 <dbl>
…
[1] "ekspor" "ihk"   

mimo_df2 <- prepare_mimo_data(data = na.omit(df),
                  date_col = date,
                  input_vars = c("ADHK",input_vars),
                  output_vars = c("ADHK"),
                  lags = 0:2,
                  remove_na = TRUE,
                  horizon = 1:4)
mimo_df2

# A tibble: 29 × 14
   date_lg0   ihk_lag2 ihk_lag1 ihk_lag0 ekspor_lag2 ekspor_lag1 ekspor_lag0
   <date>        <dbl>    <dbl>    <dbl>       <dbl>       <dbl>       <dbl>
 1 2015-09-01     98.9     98.9     98.8    95186751    85868149   146184552
 2 2015-12-01     98.9     98.8     98.8    85868149   146184552   277363045
 3 2016-03-01     98.8     98.8     98.8   146184552   277363045    80837466
 4 2016-06-01     98.8     98.8     98.8   277363045    80837466   256450298
 5 2016-12-01     98.8     98.8     98.8    80837466   256450298   195677273
 6 2017-03-01     98.8     98.8     98.8   256450298   195677273   135640406
 7 2017-06-01     98.8     98.8     98.8   195677273   135640406    59935547
 8 2017-09-01     98.8     98.8     98.8   135640406    59935547    75541458
 9 2017-12-01     98.8     98.8     98.8    59935547    75541458   158378320
10 2018-03-01     98.8     98.8     98.9    75541458   158378320    43910678
# ℹ 19 more rows
# ℹ 7 more variables: ADHK_lag2 <dbl>, ADHK_lag1 <dbl>, ADHK_lag0 <dbl>,
#   ADHK_lead1 <dbl>, ADHK_lead2 <dbl>, ADHK_lead3 <dbl>, ADHK_lead4 <dbl>

train_df <- mimo_df2 %>% 
            filter(date_lg0<"2022-01-01")
train_df

# A tibble: 25 × 14
   date_lg0   ihk_lag2 ihk_lag1 ihk_lag0 ekspor_lag2 ekspor_lag1 ekspor_lag0
   <date>        <dbl>    <dbl>    <dbl>       <dbl>       <dbl>       <dbl>
 1 2015-09-01     98.9     98.9     98.8    95186751    85868149   146184552
 2 2015-12-01     98.9     98.8     98.8    85868149   146184552   277363045
 3 2016-03-01     98.8     98.8     98.8   146184552   277363045    80837466
 4 2016-06-01     98.8     98.8     98.8   277363045    80837466   256450298
 5 2016-12-01     98.8     98.8     98.8    80837466   256450298   195677273
 6 2017-03-01     98.8     98.8     98.8   256450298   195677273   135640406
 7 2017-06-01     98.8     98.8     98.8   195677273   135640406    59935547
 8 2017-09-01     98.8     98.8     98.8   135640406    59935547    75541458
 9 2017-12-01     98.8     98.8     98.8    59935547    75541458   158378320
10 2018-03-01     98.8     98.8     98.9    75541458   158378320    43910678
# ℹ 15 more rows
# ℹ 7 more variables: ADHK_lag2 <dbl>, ADHK_lag1 <dbl>, ADHK_lag0 <dbl>,
#   ADHK_lead1 <dbl>, ADHK_lead2 <dbl>, ADHK_lead3 <dbl>, ADHK_lead4 <dbl>
…
